{
  "siteConfig": 
    {
    "url":"https://acpt.sol.sunweb.se/solresor", 
    "runs":3, 
    "instance": "http://dctpwptsvr1/", 
    "label":"szsehomeacpt", 
    "location": "DCTPPLCLT2:Chrome", 
    "private": false, 
    "connectivity": "NLStandaard", 
    "video":false,
    "performancecriteria":"V5"
	}
}